sim/cpu.vcd
$date
	Fri Mar 20 11:52:02 2026
$end
$version
	Icarus Verilog
$end
$timescale
	1ps
$end
$scope module tb_cpu $end
$var reg 1 ! clk $end
$var reg 1 " reset $end
$scope module uut $end
$var wire 1 ! clk $end
$var wire 1 " reset $end
$var wire 7 # opcode [6:0] $end
$var wire 7 $ funct7 [6:0] $end
$var wire 3 % funct3 [2:0] $end
$var wire 1 & Zero $end
$var wire 2 ' ResultSrc [1:0] $end
$var wire 1 ( RegWrite $end
$var wire 1 ) PCWrite $end
$var wire 1 * MemWrite $end
$var wire 2 + ImmSrc [1:0] $end
$var wire 1 , IRWrite $end
$var wire 1 - AdrSrc $end
$var wire 2 . ALUSrcB [1:0] $end
$var wire 2 / ALUSrcA [1:0] $end
$var wire 3 0 ALUControl [2:0] $end
$scope module cu $end
$var wire 1 ) PCWrite $end
$var wire 1 ! clk $end
$var wire 1 " reset $end
$var wire 7 1 opcode [6:0] $end
$var wire 7 2 funct7 [6:0] $end
$var wire 3 3 funct3 [2:0] $end
$var wire 1 & Zero $end
$var wire 2 4 ResultSrc [1:0] $end
$var wire 1 ( RegWrite $end
$var wire 1 5 PCUpdate $end
$var wire 1 * MemWrite $end
$var wire 2 6 ImmSrc [1:0] $end
$var wire 1 , IRWrite $end
$var wire 1 7 Branch $end
$var wire 1 - AdrSrc $end
$var wire 2 8 ALUSrcB [1:0] $end
$var wire 2 9 ALUSrcA [1:0] $end
$var wire 2 : ALUOp [1:0] $end
$var wire 3 ; ALUControl [2:0] $end
$scope module adec $end
$var wire 7 < op [6:0] $end
$var wire 7 = funct7 [6:0] $end
$var wire 3 > funct3 [2:0] $end
$var wire 2 ? ALUOp [1:0] $end
$var reg 3 @ ALUControl [2:0] $end
$upscope $end
$scope module fsm $end
$var wire 1 ! clk $end
$var wire 1 " reset $end
$var wire 7 A opcode [6:0] $end
$var parameter 4 B ALUWB $end
$var parameter 4 C BEQ $end
$var parameter 4 D DECODE $end
$var parameter 4 E EXECUTEI $end
$var parameter 4 F EXECUTER $end
$var parameter 4 G FETCH $end
$var parameter 4 H JAL $end
$var parameter 4 I MEMADR $end
$var parameter 4 J MEMREAD $end
$var parameter 4 K MEMWB $end
$var parameter 4 L MEMWRITE $end
$var reg 2 M ALUOp [1:0] $end
$var reg 2 N ALUSrcA [1:0] $end
$var reg 2 O ALUSrcB [1:0] $end
$var reg 1 - AdrSrc $end
$var reg 1 7 Branch $end
$var reg 1 , IRWrite $end
$var reg 1 * MemWrite $end
$var reg 1 5 PCUpdate $end
$var reg 1 ( RegWrite $end
$var reg 2 P ResultSrc [1:0] $end
$var reg 4 Q next_state [3:0] $end
$var reg 4 R state [3:0] $end
$upscope $end
$scope module idec $end
$var wire 7 S opcode [6:0] $end
$var reg 2 T ImmSrc [1:0] $end
$upscope $end
$upscope $end
$scope module dp $end
$var wire 3 U ALUControl [2:0] $end
$var wire 2 V ALUSrcA [1:0] $end
$var wire 2 W ALUSrcB [1:0] $end
$var wire 1 - AdrSrc $end
$var wire 1 , IRWrite $end
$var wire 2 X ImmSrc [1:0] $end
$var wire 1 * MemWrite $end
$var wire 1 ) PCWrite $end
$var wire 1 ( RegWrite $end
$var wire 2 Y ResultSrc [1:0] $end
$var wire 1 ! clk $end
$var wire 1 " reset $end
$var wire 7 Z opcode [6:0] $end
$var wire 7 [ funct7 [6:0] $end
$var wire 3 \ funct3 [2:0] $end
$var wire 1 & Zero $end
$var wire 32 ] SrcB [31:0] $end
$var wire 32 ^ SrcA [31:0] $end
$var wire 32 _ Result [31:0] $end
$var wire 32 ` ReadData [31:0] $end
$var wire 32 a RD2 [31:0] $end
$var wire 32 b RD1 [31:0] $end
$var wire 32 c PC [31:0] $end
$var wire 32 d OldPC [31:0] $end
$var wire 32 e Instr [31:0] $end
$var wire 32 f ImmExt [31:0] $end
$var wire 32 g Data [31:0] $end
$var wire 32 h B [31:0] $end
$var wire 32 i Adr [31:0] $end
$var wire 32 j ALUResult [31:0] $end
$var wire 32 k ALUOut [31:0] $end
$var wire 32 l A [31:0] $end
$scope module AdrSrcMux $end
$var wire 1 - sel $end
$var wire 32 m Y [31:0] $end
$var wire 32 n B [31:0] $end
$var wire 32 o A [31:0] $end
$upscope $end
$scope module alreg $end
$var wire 1 ! clk $end
$var wire 32 p ALUResult [31:0] $end
$var reg 32 q ALUOut [31:0] $end
$upscope $end
$scope module dReg $end
$var wire 1 ! clk $end
$var wire 32 r ReadData [31:0] $end
$var reg 32 s Data [31:0] $end
$upscope $end
$scope module immextn $end
$var wire 2 t ImmSrc [1:0] $end
$var wire 32 u instr [31:0] $end
$var reg 32 v ImmExt [31:0] $end
$upscope $end
$scope module inreg $end
$var wire 1 , IRWrite $end
$var wire 1 ! clk $end
$var wire 32 w PC [31:0] $end
$var wire 32 x Instruction_in [31:0] $end
$var reg 32 y Instruction [31:0] $end
$var reg 32 z OldPC [31:0] $end
$upscope $end
$scope module mainALU $end
$var wire 3 { ALUControl [2:0] $end
$var wire 1 & Zero $end
$var wire 32 | SrcB [31:0] $end
$var wire 32 } SrcA [31:0] $end
$var parameter 3 ~ ADD $end
$var parameter 3 !" AND $end
$var parameter 3 "" OR $end
$var parameter 3 #" SLT $end
$var parameter 3 $" SUB $end
$var reg 32 %" ALUResult [31:0] $end
$upscope $end
$scope module mem $end
$var wire 32 &" A [31:0] $end
$var wire 32 '" ReadData [31:0] $end
$var wire 1 * WE $end
$var wire 1 ! clk $end
$var wire 32 (" WriteData [31:0] $end
$upscope $end
$scope module pcmod $end
$var wire 32 )" PCNext [31:0] $end
$var wire 1 ) PCWrite $end
$var wire 1 ! clk $end
$var wire 1 " reset $end
$var reg 32 *" PC [31:0] $end
$upscope $end
$scope module regg $end
$var wire 5 +" A1 [4:0] $end
$var wire 5 ," A2 [4:0] $end
$var wire 5 -" A3 [4:0] $end
$var wire 32 ." RD1 [31:0] $end
$var wire 32 /" RD2 [31:0] $end
$var wire 1 ( RegWrite $end
$var wire 1 ! clk $end
$var wire 32 0" WriteData [31:0] $end
$var integer 32 1" i [31:0] $end
$upscope $end
$scope module resultMux $end
$var wire 32 2" A [31:0] $end
$var wire 32 3" B [31:0] $end
$var wire 32 4" C [31:0] $end
$var wire 2 5" sel [1:0] $end
$var reg 32 6" Y [31:0] $end
$upscope $end
$scope module srcAmux $end
$var wire 32 7" A [31:0] $end
$var wire 32 8" B [31:0] $end
$var wire 2 9" sel [1:0] $end
$var wire 32 :" C [31:0] $end
$var reg 32 ;" Y [31:0] $end
$upscope $end
$scope module srcBmux $end
$var wire 32 <" B [31:0] $end
$var wire 32 =" C [31:0] $end
$var wire 2 >" sel [1:0] $end
$var wire 32 ?" A [31:0] $end
$var reg 32 @" Y [31:0] $end
$upscope $end
$scope module srcRegg $end
$var wire 32 A" Ain [31:0] $end
$var wire 32 B" Bin [31:0] $end
$var wire 1 ! clk $end
$var reg 32 C" A [31:0] $end
$var reg 32 D" B [31:0] $end
$upscope $end
$upscope $end
$upscope $end
$upscope $end
$enddefinitions $end
$comment Show the parameter values. $end
$dumpall
b1 $"
b101 #"
b11 ""
b10 !"
b0 ~
b101 L
b100 K
b11 J
b10 I
b1010 H
b0 G
b110 F
b1000 E
b1 D
b1001 C
b111 B
$end
#0
$dumpvars
bx D"
bx C"
bx B"
bx A"
b100 @"
bx ?"
b10 >"
b100 ="
bx <"
b0 ;"
bx :"
b0 9"
bx 8"
b0 7"
bx 6"
b0 5"
b100 4"
bx 3"
bx 2"
b100000 1"
bx 0"
bx /"
bx ."
bx -"
bx ,"
bx +"
b0 *"
b100 )"
bx ("
b10100000000000010010011 '"
b0 &"
b100 %"
b0 }
b100 |
b0 {
bx z
bx y
b10100000000000010010011 x
b0 w
bx v
bx u
bx t
bx s
b10100000000000010010011 r
bx q
b100 p
b0 o
bx n
b0 m
bx l
bx k
b100 j
b0 i
bx h
bx g
bx f
bx e
bx d
b0 c
bx b
bx a
b10100000000000010010011 `
bx _
b0 ^
b100 ]
bx \
bx [
bx Z
b0 Y
bx X
b10 W
b0 V
b0 U
bx T
bx S
b0 R
b1 Q
b0 P
b10 O
b0 N
b0 M
bx A
b0 @
b0 ?
bx >
bx =
bx <
b0 ;
b0 :
b0 9
b10 8
07
bx 6
15
b0 4
bx 3
bx 2
bx 1
b0 0
b0 /
b10 .
0-
1,
bx +
0*
1)
0(
b0 '
0&
bx %
bx $
bx #
1"
0!
$end
#5000
b0 +
b0 6
b0 T
b0 X
b0 t
b0 $
b0 2
b0 =
b0 [
b0 %
b0 3
b0 >
b0 \
b10011 #
b10011 1
b10011 <
b10011 A
b10011 S
b10011 Z
b1 -"
b0 a
b0 ("
b0 /"
b0 B"
b101 ,"
b0 b
b0 ."
b0 A"
b0 +"
b101 f
b101 v
b101 <"
b100 _
b100 0"
b100 6"
b10100000000000010010011 g
b10100000000000010010011 s
b10100000000000010010011 3"
b0 d
b0 z
b0 8"
b10100000000000010010011 e
b10100000000000010010011 u
b10100000000000010010011 y
b100 k
b100 n
b100 q
b100 2"
1!
#10000
0!
#15000
b0 h
b0 ?"
b0 D"
b0 l
b0 :"
b0 C"
1!
#20000
0!
0"
#25000
b101 ]
b101 |
b101 @"
0)
b101000000000000100010011 `
b101000000000000100010011 r
b101000000000000100010011 x
b101000000000000100010011 '"
b101 j
b101 p
b101 %"
b101 )"
b101 4"
b1 /
b1 9
b1 N
b1 V
b1 9"
b1 .
b1 8
b1 O
b1 W
b1 >"
0,
05
b1000 Q
b100 i
b100 m
b100 &"
b0 ^
b0 }
b0 ;"
b1 R
b100 c
b100 o
b100 w
b100 *"
b100 7"
1!
#30000
0!
#35000
b10 :
b10 ?
b10 M
b1 .
b1 8
b1 O
b1 W
b1 >"
b10 /
b10 9
b10 N
b10 V
b10 9"
b111 Q
b101 _
b101 0"
b101 6"
b1000 R
b101 k
b101 n
b101 q
b101 2"
b101000000000000100010011 g
b101000000000000100010011 s
b101000000000000100010011 3"
1!
#40000
0!
#45000
b100 j
b100 p
b100 %"
b100 )"
b100 4"
b0 ]
b0 |
b0 @"
b100 ^
b100 }
b100 ;"
1(
b0 :
b0 ?
b0 M
b0 .
b0 8
b0 O
b0 W
b0 >"
b0 /
b0 9
b0 N
b0 V
b0 9"
b0 Q
b111 R
1!
#50000
0!
#55000
b1000 j
b1000 p
b1000 %"
b1000 )"
b1000 4"
1)
b100 ]
b100 |
b100 @"
15
b10 .
b10 8
b10 O
b10 W
b10 >"
1,
0(
b1 Q
b100 _
b100 0"
b100 6"
b0 R
b100 k
b100 n
b100 q
b100 2"
1!
#60000
0!
#65000
0)
b1000001000000110110011 `
b1000001000000110110011 r
b1000001000000110110011 x
b1000001000000110110011 '"
b1110 j
b1110 p
b1110 %"
b1110 )"
b1110 4"
b1010 ]
b1010 |
b1010 @"
b1 /
b1 9
b1 N
b1 V
b1 9"
b1 .
b1 8
b1 O
b1 W
b1 >"
0,
05
b1000 Q
b1000 i
b1000 m
b1000 &"
b100 ^
b100 }
b100 ;"
b10 -"
b1010 ,"
b1010 f
b1010 v
b1010 <"
b1000 _
b1000 0"
b1000 6"
b1 R
b1000 c
b1000 o
b1000 w
b1000 *"
b1000 7"
b100 d
b100 z
b100 8"
b101000000000000100010011 e
b101000000000000100010011 u
b101000000000000100010011 y
b1000 k
b1000 n
b1000 q
b1000 2"
1!
#70000
0!
#75000
b1010 j
b1010 p
b1010 %"
b1010 )"
b1010 4"
b0 ^
b0 }
b0 ;"
b10 :
b10 ?
b10 M
b1 .
b1 8
b1 O
b1 W
b1 >"
b10 /
b10 9
b10 N
b10 V
b10 9"
b111 Q
b1110 _
b1110 0"
b1110 6"
b1000 R
b1110 k
b1110 n
b1110 q
b1110 2"
b1000001000000110110011 g
b1000001000000110110011 s
b1000001000000110110011 3"
1!
#80000
0!
#85000
b1000 j
b1000 p
b1000 %"
b1000 )"
b1000 4"
b0 ]
b0 |
b0 @"
b1000 ^
b1000 }
b1000 ;"
1(
b0 :
b0 ?
b0 M
b0 .
b0 8
b0 O
b0 W
b0 >"
b0 /
b0 9
b0 N
b0 V
b0 9"
b0 Q
b1010 _
b1010 0"
b1010 6"
b111 R
b1010 k
b1010 n
b1010 q
b1010 2"
1!
#90000
0!
#95000
b1100 j
b1100 p
b1100 %"
b1100 )"
b1100 4"
1)
b100 ]
b100 |
b100 @"
15
b10 .
b10 8
b10 O
b10 W
b10 >"
1,
0(
b1 Q
b1000 _
b1000 0"
b1000 6"
b0 R
b1000 k
b1000 n
b1000 q
b1000 2"
1!
#100000
0!
#105000
0)
b1100000010000000100011 `
b1100000010000000100011 r
b1100000010000000100011 x
b1100000010000000100011 '"
b1010 j
b1010 p
b1010 %"
b1010 )"
b1010 4"
b10 ]
b10 |
b10 @"
b1 /
b1 9
b1 N
b1 V
b1 9"
b1 .
b1 8
b1 O
b1 W
b1 >"
0,
05
b110 Q
b1100 i
b1100 m
b1100 &"
b1000 ^
b1000 }
b1000 ;"
b110011 #
b110011 1
b110011 <
b110011 A
b110011 S
b110011 Z
b11 -"
b1010 a
b1010 ("
b1010 /"
b1010 B"
b10 ,"
b101 b
b101 ."
b101 A"
b1 +"
b10 f
b10 v
b10 <"
b1100 _
b1100 0"
b1100 6"
b1 R
b1100 c
b1100 o
b1100 w
b1100 *"
b1100 7"
b1000 d
b1000 z
b1000 8"
b1000001000000110110011 e
b1000001000000110110011 u
b1000001000000110110011 y
b1100 k
b1100 n
b1100 q
b1100 2"
1!
#110000
0!
#115000
b1111 j
b1111 p
b1111 %"
b1111 )"
b1111 4"
b1010 ]
b1010 |
b1010 @"
b101 ^
b101 }
b101 ;"
b10 :
b10 ?
b10 M
b0 .
b0 8
b0 O
b0 W
b0 >"
b10 /
b10 9
b10 N
b10 V
b10 9"
b111 Q
b1010 _
b1010 0"
b1010 6"
b110 R
b1010 k
b1010 n
b1010 q
b1010 2"
b1010 h
b1010 ?"
b1010 D"
b101 l
b101 :"
b101 C"
b1100000010000000100011 g
b1100000010000000100011 s
b1100000010000000100011 3"
1!
#120000
0!
#125000
b10110 j
b10110 p
b10110 %"
b10110 )"
b10110 4"
b1100 ^
b1100 }
b1100 ;"
1(
b0 :
b0 ?
b0 M
b0 /
b0 9
b0 N
b0 V
b0 9"
b0 Q
b1111 _
b1111 0"
b1111 6"
b111 R
b1111 k
b1111 n
b1111 q
b1111 2"
1!
#130000
0!
#135000
b10000 j
b10000 p
b10000 %"
b10000 )"
b10000 4"
1)
b100 ]
b100 |
b100 @"
15
b10 .
b10 8
b10 O
b10 W
b10 >"
1,
0(
b1 Q
b10110 _
b10110 0"
b10110 6"
b0 R
b10110 k
b10110 n
b10110 q
b10110 2"
1!
#140000
0!
#145000
0)
b10001000000011 `
b10001000000011 r
b10001000000011 x
b10001000000011 '"
b1100 j
b1100 p
b1100 %"
b1100 )"
b1100 4"
b1 +
b1 6
b1 T
b1 X
b1 t
b0 ]
b0 |
b0 @"
b1 /
b1 9
b1 N
b1 V
b1 9"
b1 .
b1 8
b1 O
b1 W
b1 >"
0,
05
b10 Q
b10000 i
b10000 m
b10000 &"
b1100 ^
b1100 }
b1100 ;"
b10 %
b10 3
b10 >
b10 \
b100011 #
b100011 1
b100011 <
b100011 A
b100011 S
b100011 Z
b0 -"
b1111 a
b1111 ("
b1111 /"
b1111 B"
b11 ,"
b0 b
b0 ."
b0 A"
b0 +"
b0 f
b0 v
b0 <"
b10000 _
b10000 0"
b10000 6"
b1 R
b10000 c
b10000 o
b10000 w
b10000 *"
b10000 7"
b1100 d
b1100 z
b1100 8"
b1100000010000000100011 e
b1100000010000000100011 u
b1100000010000000100011 y
b10000 k
b10000 n
b10000 q
b10000 2"
1!
#150000
0!
#155000
1&
b0 j
b0 p
b0 %"
b0 )"
b0 4"
b0 ^
b0 }
b0 ;"
b1 .
b1 8
b1 O
b1 W
b1 >"
b10 /
b10 9
b10 N
b10 V
b10 9"
b101 Q
b1100 _
b1100 0"
b1100 6"
b10 R
b1100 k
b1100 n
b1100 q
b1100 2"
b1111 h
b1111 ?"
b1111 D"
b0 l
b0 :"
b0 C"
b10001000000011 g
b10001000000011 s
b10001000000011 3"
1!
#160000
0!
#165000
b10100000000000010010011 `
b10100000000000010010011 r
b10100000000000010010011 x
b10100000000000010010011 '"
0&
b11111 j
b11111 p
b11111 %"
b11111 )"
b11111 4"
b0 i
b0 m
b0 &"
b1111 ]
b1111 |
b1111 @"
b10000 ^
b10000 }
b10000 ;"
1*
1-
b0 .
b0 8
b0 O
b0 W
b0 >"
b0 /
b0 9
b0 N
b0 V
b0 9"
b0 Q
b0 _
b0 0"
b0 6"
b101 R
b0 k
b0 n
b0 q
b0 2"
1!
#170000
0!
#175000
b10100 j
b10100 p
b10100 %"
b10100 )"
b10100 4"
1)
b100 ]
b100 |
b100 @"
15
b10 .
b10 8
b10 O
b10 W
b10 >"
1,
0-
0*
b1 Q
b10000 i
b10000 m
b10000 &"
b11111 _
b11111 0"
b11111 6"
b0 R
b11111 k
b11111 n
b11111 q
b11111 2"
b10100000000000010010011 g
b10100000000000010010011 s
b10100000000000010010011 3"
b10001000000011 `
b10001000000011 r
b10001000000011 x
b10001000000011 '"
1!
#180000
0!
#185000
b0 ]
b0 |
b0 @"
0)
bx `
bx r
bx x
bx '"
b10000 j
b10000 p
b10000 %"
b10000 )"
b10000 4"
b0 +
b0 6
b0 T
b0 X
b0 t
b1 /
b1 9
b1 N
b1 V
b1 9"
b1 .
b1 8
b1 O
b1 W
b1 >"
0,
05
b10 Q
b10100 i
b10100 m
b10100 &"
b10000 ^
b10000 }
b10000 ;"
b11 #
b11 1
b11 <
b11 A
b11 S
b11 Z
b100 -"
b0 a
b0 ("
b0 /"
b0 B"
b0 ,"
b0 f
b0 v
b0 <"
b10100 _
b10100 0"
b10100 6"
b1 R
b10100 c
b10100 o
b10100 w
b10100 *"
b10100 7"
b10001000000011 g
b10001000000011 s
b10001000000011 3"
b10000 d
b10000 z
b10000 8"
b10001000000011 e
b10001000000011 u
b10001000000011 y
b10100 k
b10100 n
b10100 q
b10100 2"
1!
#190000
0!
#195000
1&
b0 j
b0 p
b0 %"
b0 )"
b0 4"
b0 ^
b0 }
b0 ;"
b1 .
b1 8
b1 O
b1 W
b1 >"
b10 /
b10 9
b10 N
b10 V
b10 9"
b11 Q
b10000 _
b10000 0"
b10000 6"
b10 R
b10000 k
b10000 n
b10000 q
b10000 2"
b0 h
b0 ?"
b0 D"
bx g
bx s
bx 3"
1!
#200000
0!
#205000
b1111 `
b1111 r
b1111 x
b1111 '"
0&
b10100 j
b10100 p
b10100 %"
b10100 )"
b10100 4"
b0 i
b0 m
b0 &"
b10100 ^
b10100 }
b10100 ;"
1-
b0 .
b0 8
b0 O
b0 W
b0 >"
b0 /
b0 9
b0 N
b0 V
b0 9"
b100 Q
b0 _
b0 0"
b0 6"
b11 R
b0 k
b0 n
b0 q
b0 2"
1!
#210000
0!
#215000
bx `
bx r
bx x
bx '"
1(
b1 '
b1 4
b1 P
b1 Y
b1 5"
0-
b0 Q
b10100 i
b10100 m
b10100 &"
b1111 _
b1111 0"
b1111 6"
b100 R
b10100 k
b10100 n
b10100 q
b10100 2"
b1111 g
b1111 s
b1111 3"
1!
#220000
0!
#225000
b11000 j
b11000 p
b11000 %"
b11000 )"
b11000 4"
1)
b100 ]
b100 |
b100 @"
15
b10 .
b10 8
b10 O
b10 W
b10 >"
1,
b0 '
b0 4
b0 P
b0 Y
b0 5"
0(
b1 Q
b10100 _
b10100 0"
b10100 6"
b0 R
bx g
bx s
bx 3"
1!
#230000
0!
#235000
0)
x&
bx j
bx p
bx %"
bx )"
bx 4"
bx ]
bx |
bx @"
b11000 i
b11000 m
b11000 &"
b1 /
b1 9
b1 N
b1 V
b1 9"
b1 .
b1 8
b1 O
b1 W
b1 >"
0,
05
b0 Q
b11000 _
b11000 0"
b11000 6"
b10100 ^
b10100 }
b10100 ;"
bx $
bx 2
bx =
bx [
bx %
bx 3
bx >
bx \
bx #
bx 1
bx <
bx A
bx S
bx Z
bx -"
bx a
bx ("
bx /"
bx B"
bx ,"
bx b
bx ."
bx A"
bx +"
bx f
bx v
bx <"
b11000 c
b11000 o
b11000 w
b11000 *"
b11000 7"
b1 R
b11000 k
b11000 n
b11000 q
b11000 2"
b10100 d
b10100 z
b10100 8"
bx e
bx u
bx y
1!
#240000
0!
#245000
0&
b11100 j
b11100 p
b11100 %"
b11100 )"
b11100 4"
1)
b100 ]
b100 |
b100 @"
b11000 ^
b11000 }
b11000 ;"
15
1,
b10 .
b10 8
b10 O
b10 W
b10 >"
b0 /
b0 9
b0 N
b0 V
b0 9"
b1 Q
bx _
bx 0"
bx 6"
b0 R
bx h
bx ?"
bx D"
bx l
bx :"
bx C"
bx k
bx n
bx q
bx 2"
1!
#250000
0!
#255000
x&
bx ]
bx |
bx @"
0)
bx j
bx p
bx %"
bx )"
bx 4"
b11100 i
b11100 m
b11100 &"
b1 /
b1 9
b1 N
b1 V
b1 9"
b1 .
b1 8
b1 O
b1 W
b1 >"
0,
05
b0 Q
b11100 _
b11100 0"
b11100 6"
b11000 ^
b11000 }
b11000 ;"
b11100 c
b11100 o
b11100 w
b11100 *"
b11100 7"
b1 R
b11100 k
b11100 n
b11100 q
b11100 2"
b11000 d
b11000 z
b11000 8"
1!
#260000
0!
#265000
0&
b100000 j
b100000 p
b100000 %"
b100000 )"
b100000 4"
1)
b100 ]
b100 |
b100 @"
b11100 ^
b11100 }
b11100 ;"
15
1,
b10 .
b10 8
b10 O
b10 W
b10 >"
b0 /
b0 9
b0 N
b0 V
b0 9"
b1 Q
bx _
bx 0"
bx 6"
b0 R
bx k
bx n
bx q
bx 2"
1!
#270000
0!
#275000
x&
bx ]
bx |
bx @"
0)
bx j
bx p
bx %"
bx )"
bx 4"
b100000 i
b100000 m
b100000 &"
b1 /
b1 9
b1 N
b1 V
b1 9"
b1 .
b1 8
b1 O
b1 W
b1 >"
0,
05
b0 Q
b100000 _
b100000 0"
b100000 6"
b11100 ^
b11100 }
b11100 ;"
b100000 c
b100000 o
b100000 w
b100000 *"
b100000 7"
b1 R
b100000 k
b100000 n
b100000 q
b100000 2"
b11100 d
b11100 z
b11100 8"
1!
#280000
0!
#285000
0&
b100100 j
b100100 p
b100100 %"
b100100 )"
b100100 4"
1)
b100 ]
b100 |
b100 @"
b100000 ^
b100000 }
b100000 ;"
15
1,
b10 .
b10 8
b10 O
b10 W
b10 >"
b0 /
b0 9
b0 N
b0 V
b0 9"
b1 Q
bx _
bx 0"
bx 6"
b0 R
bx k
bx n
bx q
bx 2"
1!
#290000
0!
#295000
x&
bx ]
bx |
bx @"
0)
bx j
bx p
bx %"
bx )"
bx 4"
b100100 i
b100100 m
b100100 &"
b1 /
b1 9
b1 N
b1 V
b1 9"
b1 .
b1 8
b1 O
b1 W
b1 >"
0,
05
b0 Q
b100100 _
b100100 0"
b100100 6"
b100000 ^
b100000 }
b100000 ;"
b100100 c
b100100 o
b100100 w
b100100 *"
b100100 7"
b1 R
b100100 k
b100100 n
b100100 q
b100100 2"
b100000 d
b100000 z
b100000 8"
1!
#300000
0!
#305000
0&
b101000 j
b101000 p
b101000 %"
b101000 )"
b101000 4"
1)
b100 ]
b100 |
b100 @"
b100100 ^
b100100 }
b100100 ;"
15
1,
b10 .
b10 8
b10 O
b10 W
b10 >"
b0 /
b0 9
b0 N
b0 V
b0 9"
b1 Q
bx _
bx 0"
bx 6"
b0 R
bx k
bx n
bx q
bx 2"
1!
#310000
0!
#315000
x&
bx ]
bx |
bx @"
0)
bx j
bx p
bx %"
bx )"
bx 4"
b101000 i
b101000 m
b101000 &"
b1 /
b1 9
b1 N
b1 V
b1 9"
b1 .
b1 8
b1 O
b1 W
b1 >"
0,
05
b0 Q
b101000 _
b101000 0"
b101000 6"
b100100 ^
b100100 }
b100100 ;"
b101000 c
b101000 o
b101000 w
b101000 *"
b101000 7"
b1 R
b101000 k
b101000 n
b101000 q
b101000 2"
b100100 d
b100100 z
b100100 8"
1!
#320000
0!
#325000
0&
b101100 j
b101100 p
b101100 %"
b101100 )"
b101100 4"
1)
b100 ]
b100 |
b100 @"
b101000 ^
b101000 }
b101000 ;"
15
1,
b10 .
b10 8
b10 O
b10 W
b10 >"
b0 /
b0 9
b0 N
b0 V
b0 9"
b1 Q
bx _
bx 0"
bx 6"
b0 R
bx k
bx n
bx q
bx 2"
1!
#330000
0!
#335000
x&
bx ]
bx |
bx @"
0)
bx j
bx p
bx %"
bx )"
bx 4"
b101100 i
b101100 m
b101100 &"
b1 /
b1 9
b1 N
b1 V
b1 9"
b1 .
b1 8
b1 O
b1 W
b1 >"
0,
05
b0 Q
b101100 _
b101100 0"
b101100 6"
b101000 ^
b101000 }
b101000 ;"
b101100 c
b101100 o
b101100 w
b101100 *"
b101100 7"
b1 R
b101100 k
b101100 n
b101100 q
b101100 2"
b101000 d
b101000 z
b101000 8"
1!
#340000
0!
#345000
0&
b110000 j
b110000 p
b110000 %"
b110000 )"
b110000 4"
1)
b100 ]
b100 |
b100 @"
b101100 ^
b101100 }
b101100 ;"
15
1,
b10 .
b10 8
b10 O
b10 W
b10 >"
b0 /
b0 9
b0 N
b0 V
b0 9"
b1 Q
bx _
bx 0"
bx 6"
b0 R
bx k
bx n
bx q
bx 2"
1!
#350000
0!
#355000
x&
bx ]
bx |
bx @"
0)
bx j
bx p
bx %"
bx )"
bx 4"
b110000 i
b110000 m
b110000 &"
b1 /
b1 9
b1 N
b1 V
b1 9"
b1 .
b1 8
b1 O
b1 W
b1 >"
0,
05
b0 Q
b110000 _
b110000 0"
b110000 6"
b101100 ^
b101100 }
b101100 ;"
b110000 c
b110000 o
b110000 w
b110000 *"
b110000 7"
b1 R
b110000 k
b110000 n
b110000 q
b110000 2"
b101100 d
b101100 z
b101100 8"
1!
#360000
0!
#365000
0&
b110100 j
b110100 p
b110100 %"
b110100 )"
b110100 4"
1)
b100 ]
b100 |
b100 @"
b110000 ^
b110000 }
b110000 ;"
15
1,
b10 .
b10 8
b10 O
b10 W
b10 >"
b0 /
b0 9
b0 N
b0 V
b0 9"
b1 Q
bx _
bx 0"
bx 6"
b0 R
bx k
bx n
bx q
bx 2"
1!
#370000
0!
#375000
x&
bx ]
bx |
bx @"
0)
bx j
bx p
bx %"
bx )"
bx 4"
b110100 i
b110100 m
b110100 &"
b1 /
b1 9
b1 N
b1 V
b1 9"
b1 .
b1 8
b1 O
b1 W
b1 >"
0,
05
b0 Q
b110100 _
b110100 0"
b110100 6"
b110000 ^
b110000 }
b110000 ;"
b110100 c
b110100 o
b110100 w
b110100 *"
b110100 7"
b1 R
b110100 k
b110100 n
b110100 q
b110100 2"
b110000 d
b110000 z
b110000 8"
1!
#380000
0!
#385000
0&
b111000 j
b111000 p
b111000 %"
b111000 )"
b111000 4"
1)
b100 ]
b100 |
b100 @"
b110100 ^
b110100 }
b110100 ;"
15
1,
b10 .
b10 8
b10 O
b10 W
b10 >"
b0 /
b0 9
b0 N
b0 V
b0 9"
b1 Q
bx _
bx 0"
bx 6"
b0 R
bx k
bx n
bx q
bx 2"
1!
#390000
0!
#395000
x&
bx ]
bx |
bx @"
0)
bx j
bx p
bx %"
bx )"
bx 4"
b111000 i
b111000 m
b111000 &"
b1 /
b1 9
b1 N
b1 V
b1 9"
b1 .
b1 8
b1 O
b1 W
b1 >"
0,
05
b0 Q
b111000 _
b111000 0"
b111000 6"
b110100 ^
b110100 }
b110100 ;"
b111000 c
b111000 o
b111000 w
b111000 *"
b111000 7"
b1 R
b111000 k
b111000 n
b111000 q
b111000 2"
b110100 d
b110100 z
b110100 8"
1!
#400000
0!
#405000
0&
b111100 j
b111100 p
b111100 %"
b111100 )"
b111100 4"
1)
b100 ]
b100 |
b100 @"
b111000 ^
b111000 }
b111000 ;"
15
1,
b10 .
b10 8
b10 O
b10 W
b10 >"
b0 /
b0 9
b0 N
b0 V
b0 9"
b1 Q
bx _
bx 0"
bx 6"
b0 R
bx k
bx n
bx q
bx 2"
1!
#410000
0!
#415000
x&
bx ]
bx |
bx @"
0)
bx j
bx p
bx %"
bx )"
bx 4"
b111100 i
b111100 m
b111100 &"
b1 /
b1 9
b1 N
b1 V
b1 9"
b1 .
b1 8
b1 O
b1 W
b1 >"
0,
05
b0 Q
b111100 _
b111100 0"
b111100 6"
b111000 ^
b111000 }
b111000 ;"
b111100 c
b111100 o
b111100 w
b111100 *"
b111100 7"
b1 R
b111100 k
b111100 n
b111100 q
b111100 2"
b111000 d
b111000 z
b111000 8"
1!
#420000
0!
#425000
0&
b1000000 j
b1000000 p
b1000000 %"
b1000000 )"
b1000000 4"
1)
b100 ]
b100 |
b100 @"
b111100 ^
b111100 }
b111100 ;"
15
1,
b10 .
b10 8
b10 O
b10 W
b10 >"
b0 /
b0 9
b0 N
b0 V
b0 9"
b1 Q
bx _
bx 0"
bx 6"
b0 R
bx k
bx n
bx q
bx 2"
1!
#430000
0!
#435000
x&
bx ]
bx |
bx @"
0)
bx j
bx p
bx %"
bx )"
bx 4"
b1000000 i
b1000000 m
b1000000 &"
b1 /
b1 9
b1 N
b1 V
b1 9"
b1 .
b1 8
b1 O
b1 W
b1 >"
0,
05
b0 Q
b1000000 _
b1000000 0"
b1000000 6"
b111100 ^
b111100 }
b111100 ;"
b1000000 c
b1000000 o
b1000000 w
b1000000 *"
b1000000 7"
b1 R
b1000000 k
b1000000 n
b1000000 q
b1000000 2"
b111100 d
b111100 z
b111100 8"
1!
#440000
0!
